module gitlab.com/tlenexkoyotl/meetmeup

go 1.15

require (
	github.com/99designs/gqlgen v0.13.0
	github.com/dgrijalva/jwt-go v3.2.0+incompatible
	github.com/go-chi/chi v4.1.2+incompatible
	github.com/go-pg/pg/v10 v10.1.0
	github.com/pkg/errors v0.8.1
	github.com/rs/cors v1.7.0
	github.com/vektah/gqlparser/v2 v2.1.0
	golang.org/x/crypto v0.0.0-20200820211705-5c72a883971a
)
